
        ==========     _____ _    _ ____  _____  ______          _____  
        =====         / ____| |  | |  _ \|  __ \|  ____|   /\   |  __ \ 
          =====      | (___ | |  | | |_) | |__) | |__     /  \  | |  | |
            ====      \___ \| |  | |  _ <|  _  /|  __|   / /\ \ | |  | |
              ====    ____) | |__| | |_) | | \ \| |____ / ____ \| |__| |
        ==========   |_____/ \____/|____/|_|  \_\______/_/    \_\_____/
	  v1.4.5

//========================== featureCounts setting ===========================\\
||                                                                            ||
||             Input files : 36 BAM files                                     ||
||                           S 764-B1.bam                                     ||
||                           S 764-B2.bam                                     ||
||                           S 764-B3.bam                                     ||
||                           S 764-H1.bam                                     ||
||                           S 764-H2.bam                                     ||
||                           S 764-H3.bam                                     ||
||                           S 764-K1.bam                                     ||
||                           S 764-K2.bam                                     ||
||                           S 764-K3.bam                                     ||
||                           S ST111-B1.bam                                   ||
||                           S ST111-B2.bam                                   ||
||                           S ST111-B3.bam                                   ||
||                           S ST111-I1.bam                                   ||
||                           S ST111-I2.bam                                   ||
||                           S ST111-I3.bam                                   ||
||                           S ST111-K1.bam                                   ||
||                           S ST111-K2.bam                                   ||
||                           S ST111-K3.bam                                   ||
||                           S ST77-D1.bam                                    ||
||                           S ST77-D2.bam                                    ||
||                           S ST77-D3.bam                                    ||
||                           S ST77-F1.bam                                    ||
||                           S ST77-F2.bam                                    ||
||                           S ST77-F3.bam                                    ||
||                           S ST77-J1.bam                                    ||
||                           S ST77-J2.bam                                    ||
||                           S ST77-J3.bam                                    ||
||                           S WT-B1.bam                                      ||
||                           S WT-B2.bam                                      ||
||                           S WT-B3.bam                                      ||
||                           S WT-H1.bam                                      ||
||                           S WT-H2.bam                                      ||
||                           S WT-H3.bam                                      ||
||                           S WT-L1.bam                                      ||
||                           S WT-L2.bam                                      ||
||                           S WT-L3.bam                                      ||
||                                                                            ||
||             Output file : counts_pm.tsv                                    ||
||             Annotations : /home/aloraine/src/soyseq/GeneRegions/result ... ||
||                                                                            ||
||                 Threads : 1                                                ||
||                   Level : meta-feature level                               ||
||              Paired-end : no                                               ||
||         Strand specific : no                                               ||
||      Multimapping reads : primary only                                     ||
|| Multi-overlapping reads : not counted                                      ||
||                                                                            ||
\\===================== http://subread.sourceforge.net/ ======================//

//================================= Running ==================================\\
||                                                                            ||
|| Load annotation file /home/aloraine/src/soyseq/GeneRegions/results/SAF ... ||
||    Features : 56047                                                        ||
||    Meta-features : 56047                                                   ||
||    Chromosomes : 150                                                       ||
||                                                                            ||
|| Process BAM file 764-B1.bam...                                             ||
||    Single-end reads are included.                                          ||
||    Assign reads to features...                                             ||
||    Total reads : 20375230                                                  ||
||    Successfully assigned reads : 10985067 (53.9%)                          ||
||    Running time : 0.72 minutes                                             ||
||                                                                            ||
|| Process BAM file 764-B2.bam...                                             ||
||    Single-end reads are included.                                          ||
||    Assign reads to features...                                             ||
||    Total reads : 17624881                                                  ||
||    Successfully assigned reads : 6564083 (37.2%)                           ||
||    Running time : 0.62 minutes                                             ||
||                                                                            ||
|| Process BAM file 764-B3.bam...                                             ||
||    Single-end reads are included.                                          ||
||    Assign reads to features...                                             ||
||    Total reads : 23129477                                                  ||
||    Successfully assigned reads : 12282435 (53.1%)                          ||
||    Running time : 0.82 minutes                                             ||
||                                                                            ||
|| Process BAM file 764-H1.bam...                                             ||
||    Single-end reads are included.                                          ||
||    Assign reads to features...                                             ||
||    Total reads : 16954377                                                  ||
||    Successfully assigned reads : 9934255 (58.6%)                           ||
||    Running time : 0.60 minutes                                             ||
||                                                                            ||
|| Process BAM file 764-H2.bam...                                             ||
||    Single-end reads are included.                                          ||
||    Assign reads to features...                                             ||
||    Total reads : 32667102                                                  ||
||    Successfully assigned reads : 15621148 (47.8%)                          ||
||    Running time : 1.15 minutes                                             ||
||                                                                            ||
|| Process BAM file 764-H3.bam...                                             ||
||    Single-end reads are included.                                          ||
||    Assign reads to features...                                             ||
||    Total reads : 26116069                                                  ||
||    Successfully assigned reads : 10324873 (39.5%)                          ||
||    Running time : 0.92 minutes                                             ||
||                                                                            ||
|| Process BAM file 764-K1.bam...                                             ||
||    Single-end reads are included.                                          ||
||    Assign reads to features...                                             ||
||    Total reads : 21428327                                                  ||
||    Successfully assigned reads : 12503682 (58.4%)                          ||
||    Running time : 0.76 minutes                                             ||
||                                                                            ||
|| Process BAM file 764-K2.bam...                                             ||
||    Single-end reads are included.                                          ||
||    Assign reads to features...                                             ||
||    Total reads : 26380746                                                  ||
||    Successfully assigned reads : 8977562 (34.0%)                           ||
||    Running time : 0.93 minutes                                             ||
||                                                                            ||
|| Process BAM file 764-K3.bam...                                             ||
||    Single-end reads are included.                                          ||
||    Assign reads to features...                                             ||
||    Total reads : 21709268                                                  ||
||    Successfully assigned reads : 12483052 (57.5%)                          ||
||    Running time : 0.77 minutes                                             ||
||                                                                            ||
|| Process BAM file ST111-B1.bam...                                           ||
||    Single-end reads are included.                                          ||
||    Assign reads to features...                                             ||
||    Total reads : 20420351                                                  ||
||    Successfully assigned reads : 10831529 (53.0%)                          ||
||    Running time : 0.72 minutes                                             ||
||                                                                            ||
|| Process BAM file ST111-B2.bam...                                           ||
||    Single-end reads are included.                                          ||
||    Assign reads to features...                                             ||
||    Total reads : 19261865                                                  ||
||    Successfully assigned reads : 11203932 (58.2%)                          ||
||    Running time : 0.68 minutes                                             ||
||                                                                            ||
|| Process BAM file ST111-B3.bam...                                           ||
||    Single-end reads are included.                                          ||
||    Assign reads to features...                                             ||
||    Total reads : 20609863                                                  ||
||    Successfully assigned reads : 12343626 (59.9%)                          ||
||    Running time : 0.73 minutes                                             ||
||                                                                            ||
|| Process BAM file ST111-I1.bam...                                           ||
||    Single-end reads are included.                                          ||
||    Assign reads to features...                                             ||
||    Total reads : 15248946                                                  ||
||    Successfully assigned reads : 8644250 (56.7%)                           ||
||    Running time : 0.54 minutes                                             ||
||                                                                            ||
|| Process BAM file ST111-I2.bam...                                           ||
||    Single-end reads are included.                                          ||
||    Assign reads to features...                                             ||
||    Total reads : 17834738                                                  ||
||    Successfully assigned reads : 9899498 (55.5%)                           ||
||    Running time : 0.63 minutes                                             ||
||                                                                            ||
|| Process BAM file ST111-I3.bam...                                           ||
||    Single-end reads are included.                                          ||
||    Assign reads to features...                                             ||
||    Total reads : 25894524                                                  ||
||    Successfully assigned reads : 15251781 (58.9%)                          ||
||    Running time : 0.91 minutes                                             ||
||                                                                            ||
|| Process BAM file ST111-K1.bam...                                           ||
||    Single-end reads are included.                                          ||
||    Assign reads to features...                                             ||
||    Total reads : 18194551                                                  ||
||    Successfully assigned reads : 7404808 (40.7%)                           ||
||    Running time : 0.64 minutes                                             ||
||                                                                            ||
|| Process BAM file ST111-K2.bam...                                           ||
||    Single-end reads are included.                                          ||
||    Assign reads to features...                                             ||
||    Total reads : 28404944                                                  ||
||    Successfully assigned reads : 18625673 (65.6%)                          ||
||    Running time : 1.00 minutes                                             ||
||                                                                            ||
|| Process BAM file ST111-K3.bam...                                           ||
||    Single-end reads are included.                                          ||
||    Assign reads to features...                                             ||
||    Total reads : 10324040                                                  ||
||    Successfully assigned reads : 5391739 (52.2%)                           ||
||    Running time : 0.36 minutes                                             ||
||                                                                            ||
|| Process BAM file ST77-D1.bam...                                            ||
||    Single-end reads are included.                                          ||
||    Assign reads to features...                                             ||
||    Total reads : 24152793                                                  ||
||    Successfully assigned reads : 14382402 (59.5%)                          ||
||    Running time : 0.85 minutes                                             ||
||                                                                            ||
|| Process BAM file ST77-D2.bam...                                            ||
||    Single-end reads are included.                                          ||
||    Assign reads to features...                                             ||
||    Total reads : 30728574                                                  ||
||    Successfully assigned reads : 16511454 (53.7%)                          ||
||    Running time : 1.09 minutes                                             ||
||                                                                            ||
|| Process BAM file ST77-D3.bam...                                            ||
||    Single-end reads are included.                                          ||
||    Assign reads to features...                                             ||
||    Total reads : 21153557                                                  ||
||    Successfully assigned reads : 13260044 (62.7%)                          ||
||    Running time : 0.75 minutes                                             ||
||                                                                            ||
|| Process BAM file ST77-F1.bam...                                            ||
||    Single-end reads are included.                                          ||
||    Assign reads to features...                                             ||
||    Total reads : 19556503                                                  ||
||    Successfully assigned reads : 12931151 (66.1%)                          ||
||    Running time : 0.69 minutes                                             ||
||                                                                            ||
|| Process BAM file ST77-F2.bam...                                            ||
||    Single-end reads are included.                                          ||
||    Assign reads to features...                                             ||
||    Total reads : 13340754                                                  ||
||    Successfully assigned reads : 7774828 (58.3%)                           ||
||    Running time : 0.47 minutes                                             ||
||                                                                            ||
|| Process BAM file ST77-F3.bam...                                            ||
||    Single-end reads are included.                                          ||
||    Assign reads to features...                                             ||
||    Total reads : 29834508                                                  ||
||    Successfully assigned reads : 16824972 (56.4%)                          ||
||    Running time : 1.06 minutes                                             ||
||                                                                            ||
|| Process BAM file ST77-J1.bam...                                            ||
||    Single-end reads are included.                                          ||
||    Assign reads to features...                                             ||
||    Total reads : 8538996                                                   ||
||    Successfully assigned reads : 5432102 (63.6%)                           ||
||    Running time : 0.30 minutes                                             ||
||                                                                            ||
|| Process BAM file ST77-J2.bam...                                            ||
||    Single-end reads are included.                                          ||
||    Assign reads to features...                                             ||
||    Total reads : 22077852                                                  ||
||    Successfully assigned reads : 12545161 (56.8%)                          ||
||    Running time : 0.78 minutes                                             ||
||                                                                            ||
|| Process BAM file ST77-J3.bam...                                            ||
||    Single-end reads are included.                                          ||
||    Assign reads to features...                                             ||
||    Total reads : 14222094                                                  ||
||    Successfully assigned reads : 7085670 (49.8%)                           ||
||    Running time : 0.50 minutes                                             ||
||                                                                            ||
|| Process BAM file WT-B1.bam...                                              ||
||    Single-end reads are included.                                          ||
||    Assign reads to features...                                             ||
||    Total reads : 17972227                                                  ||
||    Successfully assigned reads : 12558479 (69.9%)                          ||
||    Running time : 0.64 minutes                                             ||
||                                                                            ||
|| Process BAM file WT-B2.bam...                                              ||
||    Single-end reads are included.                                          ||
||    Assign reads to features...                                             ||
||    Total reads : 20779077                                                  ||
||    Successfully assigned reads : 14079067 (67.8%)                          ||
||    Running time : 0.73 minutes                                             ||
||                                                                            ||
|| Process BAM file WT-B3.bam...                                              ||
||    Single-end reads are included.                                          ||
||    Assign reads to features...                                             ||
||    Total reads : 20704866                                                  ||
||    Successfully assigned reads : 12662606 (61.2%)                          ||
||    Running time : 0.73 minutes                                             ||
||                                                                            ||
|| Process BAM file WT-H1.bam...                                              ||
||    Single-end reads are included.                                          ||
||    Assign reads to features...                                             ||
||    Total reads : 18998563                                                  ||
||    Successfully assigned reads : 13461186 (70.9%)                          ||
||    Running time : 0.67 minutes                                             ||
||                                                                            ||
|| Process BAM file WT-H2.bam...                                              ||
||    Single-end reads are included.                                          ||
||    Assign reads to features...                                             ||
||    Total reads : 42022324                                                  ||
||    Successfully assigned reads : 13671290 (32.5%)                          ||
||    Running time : 1.49 minutes                                             ||
||                                                                            ||
|| Process BAM file WT-H3.bam...                                              ||
||    Single-end reads are included.                                          ||
||    Assign reads to features...                                             ||
||    Total reads : 19547651                                                  ||
||    Successfully assigned reads : 12731135 (65.1%)                          ||
||    Running time : 0.69 minutes                                             ||
||                                                                            ||
|| Process BAM file WT-L1.bam...                                              ||
||    Single-end reads are included.                                          ||
||    Assign reads to features...                                             ||
||    Total reads : 16841235                                                  ||
||    Successfully assigned reads : 9010884 (53.5%)                           ||
||    Running time : 0.60 minutes                                             ||
||                                                                            ||
|| Process BAM file WT-L2.bam...                                              ||
||    Single-end reads are included.                                          ||
||    Assign reads to features...                                             ||
||    Total reads : 14939885                                                  ||
||    Successfully assigned reads : 9653773 (64.6%)                           ||
||    Running time : 0.53 minutes                                             ||
||                                                                            ||
|| Process BAM file WT-L3.bam...                                              ||
||    Single-end reads are included.                                          ||
||    Assign reads to features...                                             ||
||    Total reads : 14066309                                                  ||
||    Successfully assigned reads : 8412916 (59.8%)                           ||
||    Running time : 0.50 minutes                                             ||
||                                                                            ||
||                         Read assignment finished.                          ||
||                                                                            ||
\\===================== http://subread.sourceforge.net/ ======================//

